module semgrep

go 1.20

require (
	github.com/fatih/color v1.15.0
	github.com/go-resty/resty/v2 v2.7.0
	github.com/rodaine/table v1.1.0
	github.com/sirupsen/logrus v1.9.3
	github.com/urfave/cli/v2 v2.25.7
)

require (
	github.com/cpuguy83/go-md2man/v2 v2.0.2 // indirect
	github.com/mattn/go-colorable v0.1.13 // indirect
	github.com/mattn/go-isatty v0.0.17 // indirect
	github.com/russross/blackfriday/v2 v2.1.0 // indirect
	github.com/xrash/smetrics v0.0.0-20201216005158-039620a65673 // indirect
	golang.org/x/net v0.0.0-20211029224645-99673261e6eb // indirect
	golang.org/x/sys v0.6.0 // indirect
)
